Cancer Testis explorer • CTexploreR
…
CT genes

The central element of CTexploreR is the list of 298 CT
genes (see table below) selected based on their expression in normal and
tumoral tissues (selection details in the next section). The table also
summarises their main characteristics.

library(CTexploreR)

## Loading required package: CTdata

CT_genes

## # A tibble: 298 × 36
##    ensembl_gene_id external_gene_name family chr   strand transcription_start_…¹
##    <chr>           <chr>              <chr>  <chr>  <int>                  <int>
##  1 ENSG00000162571 TTLL10             NA     1          1                1173880
##  2 ENSG00000173662 TAS1R1             NA     1          1                6555307
##  3 ENSG00000157330 CFAP107            NA     1          1               12746200
##  4 ENSG00000234593 KAZN-AS1           NA     1         -1               14419973
##  5 ENSG00000117148 ACTL8              NA     1          1               17755333
##  6 ENSG00000131914 LIN28A             NA     1          1               26410817
##  7 ENSG00000142698 C1orf94            NA     1          1               34176907
##  8 ENSG00000143006 DMRTB1             NA     1          1               53459399
##  9 ENSG00000237853 NFIA-AS1           NA     1         -1               61253510
## 10 ENSG00000226088 HHLA3-AS1          NA     1         -1               70360437
## # ℹ 288 more rows
## # ℹ abbreviated name: ¹​transcription_start_site
## # ℹ 30 more variables: X_linked <lgl>, TPM_testis <dbl>, max_TPM_somatic <dbl>,
## #   GTEX_category <chr>, lowly_expressed_in_GTEX <lgl>,
## #   multimapping_analysis <chr>, testis_specificity <chr>,
## #   testis_cell_type <chr>, Higher_in_somatic_cell_type <lgl>,
## #   percent_of_positive_CCLE_cell_lines <dbl>, …
…
